{
  "name": "luc.im",
  "alias": ["luc.im"],
  "version": 2,
  "public": true,
  "builds": [{ "src": "package.json", "use": "@now/static-build" }],
  "routes": [
    {
      "src": "/_next/.*",
      "headers": { "cache-control": "public, max-age=31536000, immutable" }
    },
    {
      "src": "/.*",
      "headers": { "cache-control": "max-age=3600, s-maxage=31536000" }
    }
  ],
  "github": {
    "silent": true
  }
}
